{
  "results": [
    {
      "vote_count": 242,
      "id": 447404,
      "video": false,
      "vote_average": 7.2,
      "title": "Pokémon Detective Pikachu",
      "popularity": 207.515,
      "poster_path": "/wgQ7APnFpf1TuviKHXeEe3KnsTV.jpg",
      "original_language": "en",
      "original_title": "Pokémon Detective Pikachu",
      "genre_ids": [
        9648,
        10751,
        80,
        14,
        35,
        878
      ],
      "backdrop_path": "/nDP33LmQwNsnPv29GQazz59HjJI.jpg",
      "adult": false,
      "overview": "In a world where people collect pocket-size monsters (Pokémon) to do battle, a boy comes across an intelligent monster who seeks to be a detective.",
      "release_date": "2019-05-03"
    },
    {
      "vote_count": 338,
      "id": 457799,
      "video": false,
      "vote_average": 7.1,
      "title": "Extremely Wicked, Shockingly Evil and Vile",
      "popularity": 76.921,
      "poster_path": "/zSuJ3r5zr5T26tTxyygHhgkUAIM.jpg",
      "original_language": "en",
      "original_title": "Extremely Wicked, Shockingly Evil and Vile",
      "genre_ids": [
        28,
        3456
      ],
      "backdrop_path": "/5yXNf13ly6kFQSbI5BZRQlDhCib.jpg",
      "adult": false,
      "overview": "A chronicle of the crimes of Ted Bundy, from the perspective of his longtime girlfriend, Elizabeth Kloepfer, who refused to believe the truth about him for years.",
      "release_date": "2019-05-02"
    },
    {
      "vote_count": 6,
      "id": 458156,
      "video": false,
      "vote_average": 7.8,
      "title": "John Wick: Chapter 3 – Parabellum",
      "popularity": 57.856,
      "poster_path": "/ziEuG1essDuWuC5lpWUaw1uXY2O.jpg",
      "original_language": "en",
      "original_title": "John Wick: Chapter 3 – Parabellum",
      "genre_ids": [
        28,
        35
      ],
      "backdrop_path": "/jEjyjX4izUucoq7A9jmbcT6q3e1.jpg",
      "adult": false,
      "overview": "John Wick is on the run for two reasons… he’s being hunted for a global $14 million dollar open contract on his life, and for breaking a central rule: taking a life on Continental Hotel grounds. The victim was a member of the High Table who ordered the open contract. John should have already been executed, except the Continental’s manager, Winston, has given him a one-hour grace period before he’s “Excommunicado” – membership revoked, banned from all services and cut off from other members. John uses the service industry to stay alive as he fights and kills his way out of New York City.",
      "release_date": "2019-05-15"
    },
    {
      "vote_count": 109,
      "id": 376865,
      "video": false,
      "vote_average": 5.8,
      "title": "High Life",
      "popularity": 55.616,
      "poster_path": "/wElOvH7H6sLElsTOLu1MY6oWRUx.jpg",
      "original_language": "en",
      "original_title": "High Life",
      "genre_ids": [    ],
      "backdrop_path": "/9M18vLHaaS3SNdHYrIsIWIHCm1W.jpg",
      "adult": false,
      "overview": "Monte and his baby daughter are the last survivors of a damned and dangerous mission to the outer reaches of the solar system. They must now rely on each other to survive as they hurtle toward the oblivion of a black hole.",
      "release_date": "2018-11-07"
    },
    {
      "vote_count": 0,
      "id": 531309,
      "video": false,
      "vote_average": 0,
      "title": "Brightburn",
      "popularity": 52.755,
      "poster_path": "/roslEbKdY0WSgYaB5KXvPKY0bXS.jpg",
      "original_language": "en",
      "original_title": "Brightburn",
      "genre_ids": null,
      "backdrop_path": "/uHEI6v8ApQusjbaRZ8o7WcLYeWb.jpg",
      "adult": false,
      "overview": "What if a child from another world crash-landed on Earth, but instead of becoming a hero to mankind, he proved to be something far more sinister?",
      "release_date": "2019-05-10"
    },
    {
      "vote_count": 39,
      "id": 458253,
      "video": false,
      "vote_average": 7.2,
      "title": "Missing Link",
      "popularity": 36.174,
      "poster_path": "/gEkKHiiQRVUSX15Iwo8VFydXrtu.jpg",
      "original_language": "en",
      "original_title": "Missing Link",
      "genre_ids": [
        16,
        35,
        12,
        14,
        10751
      ],
      "backdrop_path": "/ob4XnKBqAh1rg381hayebJx6EkE.jpg",
      "adult": false,
      "overview": "The charismatic Sir Lionel Frost considers himself to be the world's foremost investigator of myths and monsters. Trouble is, none of his small-minded, high-society peers seems to recognize this. Hoping to finally gain acceptance from these fellow adventurers, Sir Lionel travels to the Pacific Northwest to prove the existence of a legendary creature known as the missing link.",
      "release_date": "2019-04-04"
    },
    {
      "vote_count": 167,
      "id": 453755,
      "video": false,
      "vote_average": 6.2,
      "title": "Arctic",
      "popularity": 33.663,
      "poster_path": "/dxRc0Y4IjSRLC2fYaguXQtJCI4e.jpg",
      "original_language": "en",
      "original_title": "Arctic",
      "genre_ids": [
        18,
        12
      ],
      "backdrop_path": "/adNNHvX31BATsQjSBurupj0gt30.jpg",
      "adult": false,
      "overview": "A man stranded in the Arctic is finally about to receive his long awaited rescue. However, after a tragic accident, his opportunity is lost and he must then decide whether to remain in the relative safety of his camp or embark on a deadly trek through the unknown for potential salvation.",
      "release_date": "2018-07-26"
    },
    {
      "vote_count": 0,
      "id": 420817,
      "video": false,
      "vote_average": 0,
      "title": "Aladdin",
      "popularity": 31.326,
      "poster_path": "/3iYQTLGoy7QnjcUYRJy4YrAgGvp.jpg",
      "original_language": "en",
      "original_title": "Aladdin",
      "genre_ids": [
        12,
        14,
        10402,
        10749
      ],
      "backdrop_path": "/v4yVTbbl8dE1UP2dWu5CLyaXOku.jpg",
      "adult": false,
      "overview": "A live-action retelling of the 1992 Disney film of the same name.",
      "release_date": "2019-05-22"
    },
    {
      "vote_count": 0,
      "id": 373571,
      "video": false,
      "vote_average": 0,
      "title": "Godzilla: King of the Monsters",
      "popularity": 27.505,
      "poster_path": "/pU3bnutJU91u3b4IeRPQTOP8jhV.jpg",
      "original_language": "en",
      "original_title": "Godzilla: King of the Monsters",
      "genre_ids": [
        28,
        878,
        53
      ],
      "backdrop_path": "/mzRJpkWPjXdXak0WCc8ZxVH4hug.jpg",
      "adult": false,
      "overview": "The new story follows the heroic efforts of the crypto-zoological agency Monarch as its members face off against a battery of god-sized monsters, including the mighty Godzilla, who collides with Mothra, Rodan, and his ultimate nemesis, the three-headed King Ghidorah. When these ancient super-species—thought to be mere myths—rise again, they all vie for supremacy, leaving humanity’s very existence hanging in the balance.",
      "release_date": "2019-05-29"
    },
    {
      "vote_count": 54,
      "id": 500904,
      "video": false,
      "vote_average": 4.8,
      "title": "A Vigilante",
      "popularity": 24.12,
      "poster_path": "/avoKZfgBzyBGJsrAr2WQOwZK978.jpg",
      "original_language": "en",
      "original_title": "A Vigilante",
      "genre_ids": [
        53,
        18
      ],
      "backdrop_path": "/kReEky4XRCAq22H5V37kDcNY9dj.jpg",
      "adult": false,
      "overview": "A once abused woman, Sadie, devotes herself to ridding victims of their domestic abusers while hunting down the husband she must kill to truly be free.",
      "release_date": "2019-03-29"
    },
    {
      "vote_count": 2724,
      "id": 1368,
      "video": false,
      "vote_average": 7.3,
      "title": "First Blood",
      "popularity": 20.246,
      "poster_path": "/bbYNNEGLXrV3lJpHDg7CKaPscCb.jpg",
      "original_language": "en",
      "original_title": "First Blood",
      "genre_ids": [
        28,
        12,
        53,
        10752
      ],
      "backdrop_path": "/cU3goO0TMNDWxgDwILAARyiblXK.jpg",
      "adult": false,
      "overview": "When former Green Beret John Rambo is harassed by local law enforcement and arrested for vagrancy, the Vietnam vet snaps, runs for the hills and rat-a-tat-tats his way into the action-movie hall of fame. Hounded by a relentless sheriff, Rambo employs heavy-handed guerilla tactics to shake the cops off his tail.",
      "release_date": "1982-10-22"
    },
    {
      "vote_count": 5,
      "id": 471859,
      "video": false,
      "vote_average": 4,
      "title": "Charlie Says",
      "popularity": 20.003,
      "poster_path": "/nwYDXLQpPULdUbwkTc4gWpMJufn.jpg",
      "original_language": "en",
      "original_title": "Charlie Says",
      "genre_ids": [
        18,
        80
      ],
      "backdrop_path": "/3IrcrzWYNJYQoows7xYS6fJWz3n.jpg",
      "adult": false,
      "overview": "Three young women were sentenced to death in the infamous Manson murder case, but when the death penalty was lifted, their sentence became life imprisonment. One young graduate student was sent in to teach them - and through her we witness their transformations as they face the reality of their horrific crimes.",
      "release_date": "2019-05-10"
    },
    {
      "vote_count": 0,
      "id": 504608,
      "video": false,
      "vote_average": 0,
      "title": "Rocketman",
      "popularity": 19.651,
      "poster_path": "/f4FF18ia7yTvHf2izNrHqBmgH8U.jpg",
      "original_language": "en",
      "original_title": "Rocketman",
      "genre_ids": [
        10402,
        18
      ],
      "backdrop_path": "/oAr5bgf49vxga9etWoQpAeRMvhp.jpg",
      "adult": false,
      "overview": "The story of Elton John's life, from his years as a prodigy at the Royal Academy of Music through his influential and enduring musical partnership with Bernie Taupin.",
      "release_date": "2019-05-18"
    },
    {
      "vote_count": 37,
      "id": 471506,
      "video": false,
      "vote_average": 6.2,
      "title": "Greta",
      "popularity": 16.258,
      "poster_path": "/9hBpFyJ3pGdupXbaC2L7nGvLMBn.jpg",
      "original_language": "en",
      "original_title": "Greta",
      "genre_ids": [
        53,
        18,
        27,
        9648
      ],
      "backdrop_path": "/n67gpLtNFXqpGkM2ZdQoPLjTnI.jpg",
      "adult": false,
      "overview": "A young woman returns an elderly widow’s lost purse, leading to an unlikely relationship between the two — until the young woman discovers her elder might not be all that she seems.",
      "release_date": "2019-02-28"
    },
    {
      "vote_count": 0,
      "id": 412117,
      "video": false,
      "vote_average": 0,
      "title": "The Secret Life of Pets 2",
      "popularity": 16.234,
      "poster_path": "/xuGdAwetqSGxNNwZ2DjS8U7BBzn.jpg",
      "original_language": "en",
      "original_title": "The Secret Life of Pets 2",
      "genre_ids": [
        12,
        16,
        35,
        10751
      ],
      "backdrop_path": "/4vf0SX6tcGdcT1MNziTkfKAAMfz.jpg",
      "adult": false,
      "overview": "A sequel to the animated hit THE SECRET LIFE OF PETS.",
      "release_date": "2019-05-24"
    },
    {
      "vote_count": 7634,
      "id": 152601,
      "video": false,
      "vote_average": 7.9,
      "title": "Her",
      "popularity": 16.104,
      "poster_path": "/fsoTLnUXEUTNuVCBxAJMY0HPPd.jpg",
      "original_language": "en",
      "original_title": "Her",
      "genre_ids": [
        10749,
        878,
        18
      ],
      "backdrop_path": "/4f4tWe6uhwtuKMygfIAytR2W0pj.jpg",
      "adult": false,
      "overview": "In the not so distant future, Theodore, a lonely writer purchases a newly developed operating system designed to meet the user's every needs. To Theodore's surprise, a romantic relationship develops between him and his operating system. This unconventional love story blends science fiction and romance in a sweet tale that explores the nature of love and the ways that technology isolates and connects us all.",
      "release_date": "2013-12-18"
    },
    {
      "vote_count": 0,
      "id": 411144,
      "video": false,
      "vote_average": 0,
      "title": "We Have Always Lived in the Castle",
      "popularity": 15.64,
      "poster_path": "/2xg0n31TXPULoNuSeRNWPEHIcjF.jpg",
      "original_language": "en",
      "original_title": "We Have Always Lived in the Castle",
      "genre_ids": [
        18,
        9648,
        53
      ],
      "backdrop_path": "/fFI2MuuA2gRRFuYVKMdVWojPmHW.jpg",
      "adult": false,
      "overview": "An isolated family, having already lost four members to poisoning, uses rituals and talismans to keep itself away from hostile townspeople.",
      "release_date": "2019-05-17"
    },
    {
      "vote_count": 70,
      "id": 484437,
      "video": false,
      "vote_average": 6,
      "title": "The Hole in the Ground",
      "popularity": 14.94,
      "poster_path": "/7DMRJzH9AwpSN5D19cExAB9vDZW.jpg",
      "original_language": "en",
      "original_title": "The Hole in the Ground",
      "genre_ids": [
        27
      ],
      "backdrop_path": "/wTnFy6B5QCeRgjgCGBGlZaDESJ1.jpg",
      "adult": false,
      "overview": "Trying to escape her broken past, Sarah O’Neill is building a new life on the fringes of a backwood rural town with her young son Chris. A terrifying encounter with a mysterious neighbour shatters her fragile security, throwing Sarah into a spiralling nightmare of paranoia and mistrust, as she tries to uncover if the disturbing changes in her little boy are connected to an ominous sinkhole buried deep in the forest that borders their home.",
      "release_date": "2019-03-01"
    },
    {
      "vote_count": 1071,
      "id": 11906,
      "video": false,
      "vote_average": 7.6,
      "title": "Suspiria",
      "popularity": 14.227,
      "poster_path": "/qtHlaxwLIKuZCHjFaHa2IGYWe4C.jpg",
      "original_language": "it",
      "original_title": "Suspiria",
      "genre_ids": [
        27
      ],
      "backdrop_path": "/aCV40BdNn9MNEPapmLHw4nyLKHm.jpg",
      "adult": false,
      "overview": "From the moment she arrives in Freiberg, Germany, to attend the prestigious Tanz Academy, American ballet-dancer Suzy Bannion senses that something horribly evil lurks within the walls of the age-old institution.",
      "release_date": "1977-02-01"
    },
    {
      "vote_count": 15,
      "id": 431075,
      "video": false,
      "vote_average": 5.6,
      "title": "Polaroid",
      "popularity": 14.071,
      "poster_path": "/3ExDhZAqaSQaUNka4CDkvEaI72L.jpg",
      "original_language": "en",
      "original_title": "Polaroid",
      "genre_ids": [
        27,
        18,
        53
      ],
      "backdrop_path": "/nzMdjuUZ6LR3XheCG5VGwm5vYEY.jpg",
      "adult": false,
      "overview": "High school loner Bird Fitcher has no idea what dark secrets are tied to the mysterious Polaroid vintage camera she stumbles upon, but it doesn't take long to discover that those who have their picture taken meet a tragic end. Bird and her friends must survive one more night as they race to solve the mystery of the haunted Polaroid before it kills them all.",
      "release_date": "2019-01-10"
    }
  ],
  "page": 1,
  "total_results": 164,
  "dates": {
    "maximum": "2019-06-02",
    "minimum": "2019-05-18"
  },
  "total_pages": 9
}